Country,Exports,Value
Macedonia,"tobacco, textiles","$3,421,000,000"
Madagascar,"coffee, vanilla, shellfish","$864,800,000"
Malawi,"tea, sugar, cotton, coffee","$1,332,000,000"
Malaysia,"semiconductors, wood","$231,300,000,000"
